{
"banco":{
    "codigo":00000001,
    "nome": "Banco dos Testadores",
    "endereco":{
        "logradouro":"Rua João Januário Nunes",
        "numero":1808,
        "complemento":null,
        "cep":"94940170",
        "bairro":"Vila Monte Carlo",
        "cidade":{
            "nome":"Cachoeirinha",
            "estado":{
                "nome":"Rio Grande do Sul",
                "pais":{
                    "nome":"Brasil"
                }
            }
        }
    },
    "agencias":[
        {
            "nome": "Agencia 01",
            "consolidacao":{
                "saldoAtual":49878.00,
                "saques":798,
                "depositos":1654,
                "qtdeCorrentistas":102
            },
            "contas":[
                {
                    "codigo":00000000001,
                    "tipoConta":"Conta Corrente",
                    "gerentes":[
                        {
                            "nome":"Geraldo Batista",
                            "codFuncionario":0001,
                            "tipoGerente":"GG",
                            "cpf":"07898745621",
                            "estadoCivil":"solteiro",
                            "dataNascimento":"1987-04-12",
                            "endereco":{
                                "logradouro":"Rua Botafogo",
                                "numero":708,
                                "complemento":null,
                                "cep":"94950080",
                                "bairro":"Parque da Matriz",
                                "cidade":{
                                    "nome":"Cachoeirinha",
                                    "estado":{
                                        "nome":"Rio Grande do Sul",
                                        "pais":{
                                            "nome":"Brasil"
                                        }
                                    }
                                }
                            }
                        }
                    ],
                    "cliente":{
                        "nome":"Astolfo Pafuncio",
                        "cpf":"09846531554",
                        "estadoCivil":"casado",
                        "dataNascimento":"1996-11-08",
                        "endereco":{
                            "logradouro":"Rua Aimoré",
                            "numero":1808,
                            "complemento":"2° andar",
                            "cep":"94945020",
                            "bairro":"Vila Vista Alegre",
                            "cidade":{
                                "nome":"Cachoeirinha",
                                "estado":{
                                    "nome":"Rio Grande do Sul",
                                    "pais":{
                                        "nome":"Brasil"
                                    }
                                }
                            }
                        }
                    }
                }
            ]
        }
    ]

}
}

{
    "banco":{
        "codigo":00000002,
        "nome": "Banco dos Testadores Secundarios",
        "endereco":{
            "logradouro":"Rua Maria Ana da Costa",
            "numero":116,
            "complemento":null,
            "cep":"49870365",
            "bairro":"Parque Granja Esperança",
            "cidade":{
                "nome":"Cachoeirinha",
                "estado":{
                    "nome":"Rio Grande do Sul",
                    "pais":{
                        "nome":"Brasil"
                    }
                }
            }
        },
        "agencias":[
            {
                "nome": "Agencia 81",
                "consolidacao":{
                    "saldoAtual":49878.00,
                    "saques":798,
                    "depositos":1654,
                    "qtdeCorrentistas":102
                },
                "contas":[
                    {
                        "codigo":00000000001,
                        "tipoConta":"Conta Corrente",
                        "gerentes":[
                            {
                                "nome":"Gerente Testador 1",
                                "codFuncionario":0001,
                                "tipoGerente":"GG",
                                "cpf":"07898745621",
                                "estadoCivil":"solteiro",
                                "dataNascimento":"1987-04-12",
                                "endereco":{
                                    "logradouro":"Rua Guabirobeira",
                                    "numero":708,
                                    "complemento":null,
                                    "cep":"94960475",
                                    "bairro":"Jardim do Bosque",
                                    "cidade":{
                                        "nome":"Cachoeirinha",
                                        "estado":{
                                            "nome":"Rio Grande do Sul",
                                            "pais":{
                                                "nome":"Brasil"
                                            }
                                        }
                                    }
                                }
                            }
                        ],
                        "cliente":{
                            "nome":"Astolfo Pafuncio",
                            "cpf":"09846531554",
                            "estadoCivil":"casado",
                            "dataNascimento":"1996-11-08",
                            "endereco":{
                                "logradouro":"Rua Santana",
                                "numero":1808,
                                "complemento":null,
                                "cep":"90040372",
                                "bairro":"Farroupilha",
                                "cidade":{
                                    "nome":"Porto Alegre",
                                    "estado":{
                                        "nome":"Rio Grande do Sul",
                                        "pais":{
                                            "nome":"Brasil"
                                        }
                                    }
                                }
                            }
                        }
                    }
                ]
            }
        ]
    
    }
    }